Gov 50 Final Project
…
library(readr)
Allegations <- read_csv("C:/Users/User/Downloads/allegations.csv")

Allegations_Race <- Allegations |>
  group_by(fado_type, complainant_ethnicity)|>
  summarize(Count=n())
Allegations_Race

# A tibble: 36 × 3
# Groups:   fado_type [4]
   fado_type          complainant_ethnicity Count
   <chr>              <chr>                 <int>
 1 Abuse of Authority American Indian          48
 2 Abuse of Authority Asian                   330
 3 Abuse of Authority Black                 10359
 4 Abuse of Authority Hispanic               3676
 5 Abuse of Authority Other Race              390
 6 Abuse of Authority Refused                 173
 7 Abuse of Authority Unknown                 580
 8 Abuse of Authority White                  1677
 9 Abuse of Authority <NA>                   3059
10 Discourtesy        American Indian           8
# … with 26 more rows
…
allegations <- Allegations|>
  mutate( Level = case_when(board_disposition == "Exonerated" ~ 1
                            ,board_disposition == "Unsubstantiated" ~ 2,board_disposition == "Substantiated (MOS Unidentified)" ~  3,
                   board_disposition == "Substantiated (No Recommendations)" ~  4,
                   board_disposition == "Substantiated (Instructions)"~ 5, 
                   board_disposition == "Substantiated (Command Lvl Instructions)" ~ 6,
                   board_disposition == "Substantiated (Formalized Training)" ~  7,
                   board_disposition == "Substantiated (Command Discipline A)" ~  8,
                   board_disposition == "Substantiated (Command Discipline B)"~ 9,
                   board_disposition == "Substantiated (Charges)" ~  10))
allegations

# A tibble: 33,358 × 28
   unique_mo…¹ first…² last_…³ comma…⁴ shiel…⁵ compl…⁶ month…⁷ year_…⁸
         <dbl> <chr>   <chr>   <chr>     <dbl>   <dbl>   <dbl>   <dbl>
 1       10004 Jonath… Ruiz    078 PCT    8409   42835       7    2019
 2       10007 John    Sears   078 PCT    5952   24601      11    2011
 3       10007 John    Sears   078 PCT    5952   24601      11    2011
 4       10007 John    Sears   078 PCT    5952   26146       7    2012
 5       10009 Noemi   Sierra  078 PCT   24058   40253       8    2018
 6       10012 Paula   Smith   078 PCT    4021   37256       5    2017
 7       10014 Malachy Sulliv… 078 PCT    4143   33969      11    2015
 8       10017 Fazle   Tanim   078 PCT   15187   40070       8    2018
 9       10017 Fazle   Tanim   078 PCT   15187   41927       3    2019
10       10017 Fazle   Tanim   078 PCT   15187   41927       3    2019
# … with 33,348 more rows, 20 more variables: month_closed <dbl>,
#   year_closed <dbl>, command_at_incident <chr>,
#   rank_abbrev_incident <chr>, rank_abbrev_now <chr>,
#   rank_now <chr>, rank_incident <chr>, mos_ethnicity <chr>,
#   mos_gender <chr>, mos_age_incident <dbl>,
#   complainant_ethnicity <chr>, complainant_gender <chr>,
#   complainant_age_incident <dbl>, fado_type <chr>, …
…
Residual standard error: 3.062 on 32503 degrees of freedom
  (851 observations deleted due to missingness)
Multiple R-squared:  0.02461,   Adjusted R-squared:  0.02452 
F-statistic: 273.3 on 3 and 32503 DF,  p-value: < 2.2e-16

Time <- Allegations |>
  group_by(unique_mos_id)|>
  summarize(Total_Count = n())
Time

# A tibble: 3,996 × 2
   unique_mos_id Total_Count
           <dbl>       <int>
 1             2          10
 2             5           3
 3            11           5
 4            21           8
 5            23          14
 6            28           5
 7            38           3
 8            43           5
 9            73           2
10            83           8
# … with 3,986 more rows
…
library(readr)
Allegations <- read_csv("C:/Users/User/Downloads/allegations.csv")

Allegations_Race <- Allegations |>
  group_by(fado_type, complainant_ethnicity)|>
  summarize(Count=n())
Allegations_Race

# A tibble: 36 × 3
# Groups:   fado_type [4]
   fado_type          complainant_ethnicity Count
   <chr>              <chr>                 <int>
 1 Abuse of Authority American Indian          48
 2 Abuse of Authority Asian                   330
 3 Abuse of Authority Black                 10359
 4 Abuse of Authority Hispanic               3676
 5 Abuse of Authority Other Race              390
 6 Abuse of Authority Refused                 173
 7 Abuse of Authority Unknown                 580
 8 Abuse of Authority White                  1677
 9 Abuse of Authority <NA>                   3059
10 Discourtesy        American Indian           8
# … with 26 more rows
…
